820739 954477 525
405307 767705 509
643389 777113 504
532424 723591 509
728836 887558 525
99956 655048 509
910683 916204 401
323971 634101 509
296501 487239 449
378498 665377 509
610538 834122 509
824449 992032 525
283246 382847 441
307797 842021 525
945605 962821 414
107332 463498 449
127785 832158 509
866552 997486 507
282655 839273 525
367822 643853 509
184963 291782 443
688202 783070 504
122031 838725 525
684692 927444 525
337924 887975 525
645160 667655 442
795111 908112 525
229942 287972 443
431011 878354 525
440520 704777 509
171384 899684 525
715321 955542 525
572405 603776 434
459289 695063 509
248931 532773 470
565318 994520 525
806991 928466 525
890721 949141 507
572288 681261 509
537846 551540 452
149685 878056 525
246209 478671 449
606953 796918 509
307939 793417 509
616851 834295 509
735486 741695 424
209516 749449 509
541582 908164 525
102752 356616 443
594047 718228 509
143667 854132 525
773670 899457 525
468868 934284 525
193464 244527 443
671713 932006 525
5060 294408 443
665797 724201 504
166308 374360 443
356117 562084 470
144846 605307 470
171873 338509 443
210239 915026 525
659062 707848 504
550104 838414 525
823783 834540 419
229239 828270 509
973325 978473 383
696088 720037 504
903966 986372 507
54892 477600 449
768052 922653 525
402012 446098 449
491654 882598 525
152887 558088 470
76384 982833 525
277234 684764 509
469434 794681 509
748095 757994 424
844658 845364 401
157509 789512 509
937613 998020 507
151647 516931 470
984684 998647 440
260271 362287 441
59452 144823 375
445016 631098 509
576787 581748 390
321450 829405 509
547579 653998 509
137295 166353 383
492489 583489 470
980335 998564 440
638948 798281 504
955228 994344 458
39273 320593 443
548772 550666 346
407036 969569 525
8541 476820 449
258152 307457 407
816021 845313 525
907092 908894 370
723537 950472 525
493530 500851 395
180123 524078 470
915927 989988 507
199274 389463 443
918327 965459 507
510687 654990 509
613081 884330 525
117571 118633 336
968313 980403 458
269720 719687 509
644255 726669 504
694515 732952 504
854919 902627 445
231944 964360 525
277896 948582 525
540957 945376 525
294130 378010 441
709416 728825 411
471748 678247 509
662397 826966 504
941346 960762 414
244636 425689 449
657556 801485 504
671268 918455 525
767382 937579 525
366965 868615 525
26188 505533 449
938322 958703 507
56747 424327 449
149969 635956 509
892071 974804 507
239126 358491 441
264121 982193 525
285873 642329 509
466985 542383 470
384436 815459 509
630556 696297 442
168603 892744 525
652631 771337 504
30068 927362 525
903903 958453 507
140605 603678 470
732300 959937 525
898194 987318 507
664788 869273 525
419936 654551 509
638523 947948 525
266456 808971 509
218453 452157 449
800118 914518 525
843952 901642 445
202339 918349 525
820528 877074 525
786765 797490 468
59913 260972 443
36287 732911 509
913551 996326 507
741110 799472 468
746861 808820 468
507822 729256 509
361411 638626 509
806590 964525 525
607559 733365 509
97176 390127 443
806327 970141 525
223537 564786 470
707256 831149 468
581454 756574 509
961735 988415 458
207709 620152 470
628682 992470 525
270432 308245 389
467078 841665 525
933910 949950 507
603631 645205 509
445967 992823 525
694495 904344 525
461493 671949 509
687302 979263 525
161973 982628 525
692454 992802 525
530118 868389 525
439758 792305 509
414066 996981 525
47858 663408 509
895208 897576 370
195082 773774 509
191504 333611 443
546093 972381 525
467552 609729 470
667966 701910 442
569466 888949 525
686880 846186 525
856792 905786 445
369307 498247 449
840617 853044 419
71069 944612 525
23005 509406 449
363811 486526 449
656792 901078 525
643235 769367 504
354084 524263 470
676375 775466 504
472401 770362 509
724788 740898 424
238046 292839 407
798411 943465 525
300829 317202 384
169342 729350 509
576139 947811 525
718147 728834 411
754299 845008 525
270283 348700 441
222789 907390 525
773291 976054 525
591870 907532 525
70690 99646 351
920381 957937 507
383302 661970 509
682868 799535 504
61342 407954 443
504680 587912 470
346982 577109 470
446858 482460 444
698522 772761 504
924334 946141 507
338507 756931 509
453277 579644 470
26267 353310 443
282986 720031 509
577136 757661 509
314044 534401 470
369081 920043 525
66212 635272 509
206811 592647 470
8898 668445 509
29480 961262 525
377432 839981 525
558392 898559 525
683575 692103 442
577117 885844 525
598203 630212 509
650249 906118 525
450916 538652 470
565725 747215 509
276316 802807 509
646936 921532 525
750333 997171 525
